Proyecto
…
The following objects are masked from 'package:Matrix':

    expand, pack, unpack

Cargando paquete requerido: tibble

model <- remove_outliers(data = fb
                         ,formula = twue ~ riego + geno + riego*geno + (1|bloque)
              ,plot_diag = T
              )
model

$data
$data$raw
# A tibble: 150 × 5
   index riego    geno  bloque  twue
   <chr> <chr>    <chr> <chr>  <dbl>
 1 1     sequia   G01   II     4.40 
 2 2     sequia   G02   IV     4.99 
 3 3     irrigado G01   III    4.53 
 4 4     sequia   G02   I      4.65 
 5 5     irrigado G03   II     6.94 
 6 6     irrigado G04   V      6.23 
 7 7     irrigado G01   I      3.51 
 8 8     irrigado G05   IV     5.55 
 9 9     sequia   G06   II     0.543
10 10    sequia   G05   I      5.57 
# ℹ 140 more rows
…
library(inti)
model <- remove_outliers(data = fb
                         ,formula = ttrans ~ riego + geno + riego*geno + (1|bloque)
              ,plot_diag = T
              )
model

$data
$data$raw
# A tibble: 150 × 5
   index riego    geno  bloque ttrans
   <chr> <chr>    <chr> <chr>   <dbl>
 1 1     sequia   G01   II       4.50
 2 2     sequia   G02   IV       3.54
 3 3     irrigado G01   III      8.39
 4 4     sequia   G02   I        2.90
 5 5     irrigado G03   II       7.37
 6 6     irrigado G04   V       10.0 
 7 7     irrigado G01   I        6.39
 8 8     irrigado G05   IV       9.26
 9 9     sequia   G06   II       4.36
10 10    sequia   G05   I        5.16
# ℹ 140 more rows
…
